# cube.obj
#

v  0.0  0.0  0.0
v  0.0  0.0  1.0
v  0.0  1.0  0.0
v  0.0  1.0  1.0
v  1.0  0.0  0.0
v  1.0  0.0  1.0
v  1.0  1.0  0.0
v  1.0  1.0  1.0

vn  0.0  0.0  1.0
vn  0.0  0.0 -1.0
vn  0.0  1.0  0.0
vn  0.0 -1.0  0.0
vn  1.0  0.0  0.0
vn -1.0  0.0  0.0
 
f  12  72  52
f  12  32  72 
f  16  46  36 
f  16  26  46 
f  33  83  73 
f  33  43  83 
f  55  75  85 
f  55  85  65 
f  14  54  64 
f  14  64  24 
f  21  61  81 
f  21  81  41 